{
  "log": {
    "access": "",
    "error": "",
    "loglevel": "warning"
  },
  "inbounds": [
    {
      "tag": "socks",
      "port": 10808,
      "listen": "127.0.0.1",
      "protocol": "socks",
      "sniffing": {
        "enabled": false,
        "destOverride": [
          "http",
          "tls"
        ]
      },
      "settings": {
        "auth": "noauth",
        "udp": false,
        "allowTransparent": false
      }
    },
    {
      "tag": "http",
      "port": 1081,
      "listen": "127.0.0.1",
      "protocol": "http",
      "sniffing": {
        "enabled": false,
        "destOverride": [
          "http",
          "tls"
        ]
      },
      "settings": {
        "auth": "noauth",
        "udp": false,
        "allowTransparent": false
      }
    }
  ],
  "outbounds": [
    {
      "tag": "proxy",
      "protocol": "vless",
      "settings": {
        "vnext": [
          {
            "address": "v2ray6.v2rayfree2.xyz",
            "port": 443,
            "users": [
              {
                "id": "af8626d4-ec1c-4f9e-8992-b48947cdf681",
                "alterId": 0,
                "email": "t@t.tt",
                "security": "auto",
                "encryption": "none",
                "flow": ""
              }
            ]
          }
        ]
      },
      "streamSettings": {
        "network": "ws",
        "security": "tls",
        "tlsSettings": {
          "allowInsecure": false,
          "serverName": "v2ray6.v2rayfree2.xyz"
        },
        "wsSettings": {
          "path": "/9FM9P8",
          "headers": {
            "Host": "v2ray6.v2rayfree2.xyz"
          }
        }
      },
      "mux": {
        "enabled": true,
        "concurrency": 8
      }
    },
    {
      "tag": "direct",
      "protocol": "freedom",
      "settings": {}
    },
    {
      "tag": "block",
      "protocol": "blackhole",
      "settings": {
        "response": {
          "type": "http"
        }
      }
    }
  ],
  "routing": {
    "domainStrategy": "IPIfNonMatch",
    "domainMatcher": "linear",
    "rules": [
      {
        "type": "field",
        "inboundTag": [
          "api"
        ],
        "outboundTag": "api",
        "enabled": true
      },
      {
        "type": "field",
        "outboundTag": "proxy",
        "domain": [
          "geosite:google"
        ],
        "enabled": true
      },
      {
        "type": "field",
        "outboundTag": "direct",
        "domain": [
          "domain:example-example.com",
          "domain:example-example2.com"
        ],
        "enabled": true
      },
      {
        "type": "field",
        "outboundTag": "block",
        "domain": [
          "geosite:category-ads-all"
        ],
        "enabled": true
      }
    ]
  }
}
